…
And when they call `more()`:

```
── Negative values for Supply ─────────────────────────────────────
The spatial had negative values for Supply. This has been shown to cause
unstable estimates. Negative Supply was permitted in previous releases, so you
may still find old configuration that contains negatives. Be careful when
copy-pasting model inputs. See dataset `negative_supply_rows`.


── more() data ──

$negative_supply_rows
# A tibble: 34 × 2
    sa2_code sa2_name
       <int> <chr>
 1 303021052 Annerley
 2 303021053 Coorparoo
 3 303021054 Fairfield - Dutton Park
 4 303021055 Greenslopes
 5 303021056 Holland Park
 6 303021057 Holland Park West
 7 303021058 Woolloongabba
 8 303021059 Yeronga
 9 303031060 Eight Mile Plains
10 303031061 Macgregor (Qld)
# ℹ 24 more rows
# ℹ Use `print(n = ...)` to see more rows
```
…
